{"peers":
[
{"address":"127.0.0.1",
"port":9081,
"id":"Peer1_SSL"
},
{"address":"127.0.0.1",
"port":9082,
"id":"Peer2_SSL"
},
{"address":"127.0.0.1",
"port":9083,
"id":"Peer3_SSL"
},
{"address":"127.0.0.1",
"port":9084,
"id":"Peer4_SSL"
},
{"address":"127.0.0.1",
"port":9085,
"id":"Peer5_SSL"
}],
"socketTimeoutInitial":2000,
"socketTimeoutMax":30000,
"id":"Peer4",
"address":"127.0.0.1",
"port":9084,
"extPort":9094,
"pathToKeyStore":"./release_demo/Peer4/keys/Peer4keys.jks",
"keyStorePwd":"",
"pathToSigningKey":"./release_demo/Peer4/keys/Peer4_private.bks",
"signingKeyPwd":"",
"alias":"Peer4",
"sk1Pwd":"",
"sk2Pwd":"",
"submissionTimeout":30,
"max_zip_entry":200,
	"commitTime":"7:00",
	"runCommitAt":"8:00",
"bufferBound":10240,
"districtConf":"./release_demo/Peer4/districtconf.json",
"messageDigest":"SHA1",
"uploadDirectory":"./release_demo/temp/uploads/Peer4/uploads/",
"commitUploadDirectory":"./release_demo/temp/uploads/Peer4/commit_uploads/",
"certificateKeyStore":"./release_demo/Peer4/certificates/certs.jks",
"certificateKeyStorePwd":"",
"commitDirectory":"./release_demo/temp/commits/Peer4/",
"threshold":4,
"schemaList":"./schemas/schemalist.json",
"fileUploadTimeout":30000,
"uiPort":9014,
"SSLConfig":"SSL_RSA_WITH_NULL_SHA",
"certStores":"./release_demo/Peer4/certStores.json",
"ballotTimeout":30000,
"races":
[
{"id":"la",
"candidates":20},
{"id":"lc_atl",
"candidates":10},
{"id":"lc_btl",
"candidates":50}],
"liveCheckPOD":false,
"baseEncryptedIds":"./release_demo/Peer4/base_encrypted_ids.json",
"electionPublicKey":"./release_demo/Peer4/publickey.json",
"publicWBBAddress":"localhost",
"publicWBBPort":8899,
"CRLFolder":"./release_demo/Peer4/crls/"
}
