{"peers":
[
{"address":"127.0.0.1",
"port":9081,
"id":"Peer1_SSL"
},
{"address":"127.0.0.1",
"port":9082,
"id":"Peer2_SSL"
},
{"address":"127.0.0.1",
"port":9083,
"id":"Peer3_SSL"
},
{"address":"127.0.0.1",
"port":9084,
"id":"Peer4_SSL"
},
{"address":"127.0.0.1",
"port":9085,
"id":"Peer5_SSL"
}],
"socketTimeoutInitial":2000,
"socketTimeoutMax":30000,
"id":"Peer5",
"address":"127.0.0.1",
"port":9085,
"extPort":9095,
"pathToKeyStore":"./demo/Peer5/keys/Peer5keys.jks",
"keyStorePwd":"",
"pathToSigningKey":"./demo/Peer5/keys/Peer5_private.bks",
"signingKeyPwd":"",
"alias":"Peer5",
"sk1Pwd":"",
"sk2Pwd":"",
"submissionTimeout":30,
"max_zip_entry":200,
	"commitTime":"7:00",
	"runCommitAt":"8:00",
"bufferBound":10240,
"districtConf":"./demo/Peer5/districtconf.json",
"messageDigest":"SHA1",
"uploadDirectory":"./temp/uploads/Peer5/uploads/",
"commitUploadDirectory":"./temp/uploads/Peer5/commit_uploads/",
"certificateKeyStore":"./demo/Peer5/certificates/certs.jks",
"certificateKeyStorePwd":"",
"commitDirectory":"./temp/commits/Peer5/",
"threshold":4,
"schemaList":"./schemas/schemalist.json",
"fileUploadTimeout":30000,
"uiPort":9015,
"SSLConfig":"SSL_RSA_WITH_NULL_SHA",
"certStores":"./demo/Peer5/certStores.json",
"ballotTimeout":30000,
"races":[
	{
		"id":"la",
		"candidates":20,
		"type":"Single"
	},
	{
		"id":"lc_atl",
		"candidates":10,
		"type":"Ranked"
		
	}
	
],
"liveCheckPOD":false,
"baseEncryptedIds":"./demo/Peer5/base_encrypted_ids.json",
"electionPublicKey":"./demo/Peer5/publickey.json",
"publicWBBAddress":"localhost",
"publicWBBPort":8899,
"publicWBBRetry":60000,
"CRLFolder":"./demo/Peer5/crls/"
}
